<svg width="20" height="20" viewBox="0 0 20 20" xmlns="http://www.w3.org/2000/svg">
<g clip-path="url(#clip0)">
<path d="M17.7083 20H2.29172C1.02753 20 0 18.9725 0 17.7083V3.95831C0 2.69412 1.02753 1.66675 2.29172 1.66675H17.7083C18.9725 1.66675 20 2.69412 20 3.95831V17.7083C20 18.9725 18.9725 20 17.7083 20ZM2.29172 3.22C1.97 3.22 1.55 3.63 1.55 3.95831V17.7083C1.55 18.03 1.97 18.45 2.29172 18.45H10H17.7083C18.03 18.45 18.45 18.0342 18.45 17.46V3.95831C18.45 3.63 18.03 3.22 17.7083 3.22H2.29172Z"/>
<path d="M19.375 8.07H0.625C0.279999 8.07 0 7.63669 0 7.29169C0 6.94669 0.279999 6.51996 0.625 6.51996H19.375C19.72 6.51996 20 6.94669 20 7.29169C20 7.63669 19.72 8.07 19.375 8.07Z" />
<path d="M4.79172 5C4.44672 5 4.02002 4.72 4.02002 4.375C4.02002 4.03 4.02002 0.625 4.02002 0.625C4.02002 0.279999 4.44672 0 4.79172 0C5.13672 0 5.57 0.279999 5.57 0.625C5.57 0.970001 5.57 4.03 5.57 4.375C5.57 4.72 5.13672 5 4.79172 5Z"/>
<path d="M15.2083 5C14.8633 5 14.43 4.72 14.43 4.375C14.43 4.03 14.43 0.625 14.43 0.625C14.43 0.279999 14.8633 0 15.2083 0C15.5533 0 15.98 0.279999 15.98 0.625V4.375C15.98 4.72 15.5533 5 15.2083 5Z"/>
</g>
<defs>
<clipPath id="clip0">
<rect width="20" height="20"/>
</clipPath>
</defs>
</svg>
